module gitlab.com/gitlab-org/opstrace/gitlabobservabilityexporter

go 1.19

require (
	github.com/getsentry/sentry-go v0.20.0
	github.com/google/uuid v1.3.0
	go.opentelemetry.io/collector/component v0.75.0
	go.opentelemetry.io/collector/exporter v0.75.0
	go.opentelemetry.io/collector/pdata v1.0.0-rc9
	go.uber.org/zap v1.24.0
)

require (
	github.com/cenkalti/backoff/v4 v4.2.0 // indirect
	github.com/gogo/protobuf v1.3.2 // indirect
	github.com/golang/protobuf v1.5.2 // indirect
	github.com/json-iterator/go v1.1.12 // indirect
	github.com/knadh/koanf v1.5.0 // indirect
	github.com/mitchellh/copystructure v1.2.0 // indirect
	github.com/mitchellh/mapstructure v1.5.0 // indirect
	github.com/mitchellh/reflectwalk v1.0.2 // indirect
	github.com/modern-go/concurrent v0.0.0-20180306012644-bacd9c7ef1dd // indirect
	github.com/modern-go/reflect2 v1.0.2 // indirect
	go.opencensus.io v0.24.0 // indirect
	go.opentelemetry.io/collector v0.75.0 // indirect
	go.opentelemetry.io/collector/confmap v0.75.0 // indirect
	go.opentelemetry.io/collector/consumer v0.75.0 // indirect
	go.opentelemetry.io/collector/featuregate v0.75.0 // indirect
	go.opentelemetry.io/collector/receiver v0.75.0 // indirect
	go.opentelemetry.io/collector/semconv v0.75.0 // indirect
	go.opentelemetry.io/otel v1.14.0 // indirect
	go.opentelemetry.io/otel/metric v0.37.0 // indirect
	go.opentelemetry.io/otel/trace v1.14.0 // indirect
	go.uber.org/atomic v1.10.0 // indirect
	go.uber.org/multierr v1.10.0 // indirect
	golang.org/x/net v0.8.0 // indirect
	golang.org/x/sys v0.6.0 // indirect
	golang.org/x/text v0.8.0 // indirect
	google.golang.org/genproto v0.0.0-20230110181048-76db0878b65f // indirect
	google.golang.org/grpc v1.54.0 // indirect
	google.golang.org/protobuf v1.30.0 // indirect
)
